landcover:EvergreenConiferousForest
landcover:OpenDeciduousBroadleafForest
landcover:Shrubland
landcover:Mangrove
landcover:OpenDeciduousConiferousForest
landcover:WaterBody
landcover:BareArea
landcover:ClosedDeciduousBroadleafForest
landcover:ClosedDeciduousConiferousForest
landcover:BeachDuneAndSand
landcover:Grassland
landcover:OpenSavanna
landcover:DeciduousBroadleafForest
landcover:SparseShrubCover
landcover:ArtificialSurface
landcover:OpenEvergreenConiferousForest
landcover:SparseTreeCover
landcover:NonIrrigatedArableLandHerbaceous
landcover:ClosedEvergreenConiferousForest
landcover:NonIrrigatedArableLand
landcover:ClosedSavanna
landcover:AgriculturalLandWithNaturalVegetation
landcover:EvergreenBroadleafForest
landcover:PermanentlyIrrigatedArableLand
landcover:DeciduousConiferousForest
landcover:MixedForest
landcover:InlandMarsh
landcover:ComplexCultivationPatternedLand
landcover:GlacierAndPerpetualSnow
landcover:EvergreenShrubland
landcover:LichenMoss
landcover:DeciduousShrubland
landcover:BareRock
landcover:SparseVegetation
landcover:SparseHerbaceousCover
landcover:PermanentCropland
landcover:Wetland
